#auto generated file!
180.0;112;42;21
186.0;112;42;21
192.0;108;46;21
198.0;114;37;24
204.0;115;42;18
210.0;107;42;26
216.0;109;43;23
222.0;108;41;26
228.0;106;46;23
234.0;103;45;27
240.0;106;43;26
246.0;108;45;22
252.0;110;49;16
258.0;102;52;21
264.0;105;47;23
270.0;100;44;31
276.0;104;42;29
282.0;100;42;33
288.0;99;41;35
294.0;98;38;39
300.0;100;40;35
306.0;105;38;32
312.0;106;38;31
318.0;103;42;30
324.0;98;50;27
330.0;99;51;25
336.0;96;54;25
342.0;100;52;23
348.0;101;52;22
354.0;101;51;23
360.0;102;51;22
366.0;98;54;23
372.0;98;57;20
378.0;96;57;22
384.0;92;61;22
390.0;100;49;26
396.0;103;48;24
402.0;97;54;24
408.0;97;54;24
414.0;102;48;25
420.0;102;47;26
426.0;102;48;25
432.0;100;53;22
438.0;102;53;20
444.0;99;55;21
450.0;97;50;28
456.0;97;45;33
462.0;88;50;37
468.0;89;48;38
474.0;89;53;33
480.0;90;55;30
486.0;87;56;32
492.0;91;58;26
498.0;92;55;28
504.0;94;56;25
510.0;95;56;24
516.0;96;56;23
522.0;99;53;23
528.0;98;54;23
534.0;97;50;28
540.0;97;47;31
546.0;98;49;28
552.0;99;47;29
558.0;97;47;31
564.0;90;48;37
570.0;92;51;32
576.0;92;58;25
582.0;93;60;22
588.0;95;63;17
594.0;94;59;22
600.0;102;53;20
606.0;105;48;22
612.0;105;46;24
618.0;109;43;23
624.0;110;42;23
630.0;108;40;27
636.0;108;39;28
642.0;110;38;27
648.0;104;43;28
654.0;99;49;27
660.0;103;47;25
666.0;98;49;28
672.0;95;50;30
678.0;96;47;32
684.0;94;56;25
690.0;99;59;17
696.0;101;50;24
702.0;98;52;25
708.0;100;51;24
714.0;105;47;23
720.0;103;49;23
726.0;100;51;24
732.0;100;51;24
738.0;102;52;21
744.0;103;56;16
750.0;104;50;21
756.0;100;52;23
762.0;97;50;28
768.0;96;47;32
774.0;97;46;32
780.0;95;47;33
786.0;91;53;31
792.0;92;58;25
798.0;92;54;29
804.0;95;56;24
810.0;97;55;23
816.0;97;52;26
822.0;96;55;24
828.0;92;57;26
834.0;93;58;24
840.0;95;62;18
846.0;97;56;22
852.0;95;54;26
858.0;92;57;26
864.0;95;55;25
870.0;95;57;23
876.0;101;51;23
882.0;103;52;20
888.0;97;54;24
894.0;103;49;23
900.0;96;51;28
906.0;97;51;27
912.0;100;53;22
918.0;100;50;25
924.0;102;53;20
930.0;104;51;20
936.0;100;53;22
942.0;98;52;25
948.0;104;44;27
954.0;102;47;26
960.0;107;48;20
966.0;105;46;24
972.0;102;43;30
978.0;104;44;27
984.0;104;39;32
990.0;100;47;28
996.0;102;44;29
1002.0;101;44;30
1008.0;102;48;25
1014.0;99;52;24
1020.0;93;51;31
1026.0;93;47;35
1032.0;91;54;30
1038.0;91;54;30
1044.0;92;54;29
1050.0;92;50;33
1056.0;97;54;24
1062.0;100;48;27
1068.0;100;53;22
1074.0;104;48;23
1080.0;102;49;24
1086.0;97;50;28
1092.0;97;53;25
1098.0;95;54;26
1104.0;96;54;25
1110.0;99;51;25
1116.0;101;50;24
1122.0;100;52;23
1128.0;103;52;20
1134.0;104;46;25
1140.0;107;48;20
1146.0;109;39;27
1152.0;114;36;25
1158.0;112;41;22
1164.0;114;41;20
1170.0;113;43;19
1176.0;112;43;20
1182.0;107;51;17
1188.0;103;51;21
1194.0;96;57;22
1200.0;94;60;21
1206.0;89;58;28
1212.0;92;55;28
1218.0;92;54;29
1224.0;93;58;24
1230.0;95;57;23
1236.0;97;53;25
1242.0;102;52;21
1248.0;106;47;22
1254.0;108;44;23
1260.0;110;40;25
1266.0;113;38;24
1272.0;107;44;24
1278.0;112;43;20
1284.0;105;48;22
1290.0;105;48;22
1296.0;112;45;18
1302.0;106;47;22
1308.0;107;40;28
1314.0;109;43;23
1320.0;103;50;22
1326.0;104;50;21
1332.0;100;43;32
1338.0;103;44;28
1344.0;96;51;28
1350.0;94;54;27
1356.0;92;58;25
1362.0;86;63;26
1368.0;93;61;21
1374.0;92;61;22
1380.0;91;54;30
1386.0;97;49;29
1392.0;100;51;24
1398.0;99;55;21
1404.0;101;53;21
1410.0;101;55;19
1416.0;103;50;22
1422.0;101;52;22
1428.0;103;49;23
1434.0;100;54;21
1440.0;105;52;18
1446.0;106;47;22
1452.0;100;53;22
1458.0;99;59;17
1464.0;101;57;17
1470.0;97;57;21
1476.0;92;61;22
1482.0;94;59;22
1488.0;92;54;29
1494.0;97;51;27
