#auto generated file!
815;53;0;0;0.3238912482397078;0.3097185604782749;0.014172687761433246;0.0;0.0;45;8
815;53;0;0;0.3238912482397078;0.3097185604782749;0.0;27.276606425702813;45
0;0;0;0;0.0;0.0;0.0;0.0;0
0;0;0;0;0;0;0;0;0
0.014172687761433246;0.0;0.0;0;0;0
