#auto generated file!
180.0;66;40;19
186.0;67;40;18
192.0;72;37;16
198.0;72;33;20
204.0;68;34;23
210.0;67;36;22
216.0;66;37;22
222.0;63;36;26
228.0;66;36;23
234.0;73;30;22
240.0;72;34;19
246.0;73;32;20
252.0;71;36;18
258.0;69;41;15
264.0;68;41;16
270.0;67;42;16
276.0;67;42;16
282.0;65;46;14
288.0;64;43;18
294.0;68;40;17
300.0;67;40;18
306.0;63;45;17
312.0;64;40;21
318.0;64;42;19
324.0;70;40;15
330.0;69;40;16
336.0;70;40;15
342.0;69;42;14
348.0;66;39;20
354.0;65;41;19
360.0;71;39;15
366.0;73;38;14
372.0;71;34;20
378.0;68;36;21
384.0;69;34;22
390.0;74;33;18
396.0;79;31;15
402.0;80;30;15
408.0;77;30;18
414.0;80;32;13
420.0;78;33;14
426.0;75;33;17
432.0;75;32;18
438.0;74;30;21
444.0;66;34;25
450.0;71;33;21
456.0;72;36;17
462.0;73;32;20
468.0;74;33;18
474.0;76;32;17
480.0;76;30;19
486.0;74;34;17
492.0;77;29;19
498.0;80;27;18
504.0;81;25;19
510.0;77;28;20
516.0;72;32;21
522.0;72;35;18
528.0;74;32;19
534.0;72;32;21
540.0;70;32;23
546.0;72;34;19
552.0;75;30;20
558.0;74;29;22
564.0;71;32;22
570.0;70;38;17
576.0;73;34;18
582.0;70;40;15
588.0;76;36;13
594.0;77;33;15
600.0;76;34;15
606.0;77;34;14
612.0;80;32;13
618.0;77;32;16
624.0;80;29;16
630.0;78;31;16
636.0;71;35;19
642.0;74;34;17
648.0;71;36;18
654.0;67;35;23
660.0;73;32;20
666.0;65;34;26
672.0;75;30;20
678.0;73;29;23
684.0;73;32;20
690.0;74;37;14
696.0;77;36;12
702.0;73;40;12
708.0;68;45;12
714.0;64;45;16
720.0;65;42;18
726.0;63;43;19
732.0;63;44;18
738.0;69;39;17
744.0;66;39;20
750.0;69;35;21
756.0;69;36;20
762.0;70;39;16
768.0;67;46;12
774.0;69;45;11
780.0;76;41;8
786.0;79;39;7
792.0;81;33;11
798.0;85;27;13
804.0;79;28;18
810.0;79;31;15
816.0;79;32;14
822.0;88;20;17
828.0;85;21;19
834.0;82;25;18
840.0;86;28;11
846.0;82;32;11
852.0;84;32;9
858.0;76;35;14
864.0;76;37;12
870.0;73;34;18
876.0;72;33;20
882.0;69;31;25
888.0;68;35;22
894.0;66;34;25
900.0;73;37;15
906.0;72;35;18
912.0;69;39;17
918.0;72;35;18
924.0;76;35;14
930.0;78;33;14
936.0;81;28;16
942.0;76;34;15
948.0;75;32;18
954.0;78;31;16
960.0;80;29;16
966.0;78;27;20
972.0;78;28;19
978.0;79;28;18
984.0;79;27;19
990.0;78;29;18
996.0;74;36;15
1002.0;76;34;15
1008.0;73;36;16
1014.0;70;39;16
1020.0;70;41;14
1026.0;70;41;14
1032.0;68;42;15
1038.0;70;40;15
1044.0;68;42;15
1050.0;72;37;16
1056.0;73;36;16
1062.0;73;35;17
1068.0;70;37;18
1074.0;71;38;16
1080.0;72;38;15
1086.0;78;36;11
1092.0;78;31;16
1098.0;78;32;15
1104.0;75;37;13
1110.0;74;35;16
1116.0;70;41;14
1122.0;73;36;16
1128.0;71;37;17
1134.0;74;33;18
1140.0;80;33;12
1146.0;79;37;9
1152.0;72;37;16
1158.0;72;39;14
1164.0;69;40;16
1170.0;70;47;8
1176.0;70;41;14
1182.0;69;40;16
1188.0;73;36;16
1194.0;80;33;12
1200.0;73;33;19
1206.0;72;31;22
1212.0;71;30;24
1218.0;72;33;20
1224.0;76;33;16
1230.0;76;34;15
1236.0;73;39;13
1242.0;72;39;14
1248.0;70;34;21
1254.0;74;35;16
1260.0;73;37;15
1266.0;75;35;15
1272.0;76;37;12
1278.0;78;29;18
1284.0;78;27;20
1290.0;80;26;19
1296.0;76;31;18
1302.0;78;29;18
1308.0;78;26;21
1314.0;75;31;19
1320.0;77;27;21
1326.0;74;31;20
1332.0;78;30;17
1338.0;82;25;18
1344.0;76;26;23
1350.0;75;28;22
1356.0;73;31;21
1362.0;74;26;25
1368.0;79;26;20
1374.0;76;31;18
1380.0;79;29;17
1386.0;80;35;10
1392.0;77;33;15
1398.0;73;35;17
1404.0;76;32;17
1410.0;79;30;16
1416.0;77;32;16
1422.0;77;28;20
1428.0;72;32;21
1434.0;74;33;18
1440.0;78;35;12
1446.0;74;38;13
1452.0;80;31;14
1458.0;80;28;17
1464.0;70;34;21
1470.0;70;32;23
1476.0;72;34;19
1482.0;71;33;21
1488.0;77;29;19
1494.0;76;28;21
