#auto generated file!
7870;421;11;0;1.7627476139761207;1.702228112651503;0.06051950132462242;0.0;0.0;0;421
6967;412;11;0;1.9228796180855894;1.8999887533495903;0.0;10.040997322623824;0
903;9;0;0;0.5272662489366298;0.17642702323446816;0.0;0.08433734939759036;0
0;0;0;0;0;0;0;0;0
0.022890864736001288;0.0;0.3508392257021615;0;0;0
