#auto generated file!
44;5;0;0;3.1088781667499132;3.0952913190059785;0.013586847743935914;0.0;0.0;0;5
44;5;0;0;3.1088781667499132;3.0952913190059785;0.0;4.084672021419013;0
0;0;0;0;0.0;0.0;0.0;0.0;0
0;0;0;0;0;0;0;0;0
0.013586847743935914;0.0;0.0;0;0;0
