#auto generated file!
4217;184;0;0;1.3131147920042214;1.2416828634213481;0.07143192858287256;0.0;0.0;0;184
3532;173;0;0;1.4852034032141666;1.4676748569380695;0.0;61.13788487282462;0
685;11;0;0;0.42579074121076405;0.07642195670446666;0.0;0.1827309236947791;0
0;0;0;0;0;0;0;0;0
0.01752854627609321;0.0;0.3493687845062976;0;0;0
