#auto generated file!
2603;17;0;0;0.23148923703688615;0.22693157689866622;0.0045576601382221645;0.0;0.0;2;15
2603;17;0;0;0.23148923703688615;0.22693157689866622;0.0;10.893574297188753;2
0;0;0;0;0.0;0.0;0.0;0.0;0
0;0;0;0;0;0;0;0;0
0.0045576601382221645;0.0;0.0;0;0;0
