#auto generated file!
651;28;0;0;0.7900053965989106;0.7854338365446711;0.004571560054239171;0.0;0.0;2;26
651;28;0;0;0.7900053965989106;0.7854338365446711;0.0;10.418340026773766;2
0;0;0;0;0.0;0.0;0.0;0.0;0
0;0;0;0;0;0;0;0;0
0.004571560054239171;0.0;0.0;0;0;0
