#auto generated file!
15178;211;6;0;0.4861557233108594;0.43977346188414546;0.04638226142671602;0.0;0.0;0;211
13297;185;6;0;0.48359214261825506;0.4790559702637286;0.0;3.9867804551539483;0
1881;26;0;0;0.504277962794953;0.16208100365803638;0.0;0.13052208835341367;0
0;0;0;0;0;0;0;0;0
0.004536172354527365;0.0;0.3421969591369184;0;0;0
