#auto generated file!
830;218;0;0;0.8177408863545872;0.8034967576368764;0.014244128717711564;0.0;0.0;206;12
830;218;0;0;0.8177408863545872;0.8034967576368764;0.0;53.115796519410985;206
0;0;0;0;0.0;0.0;0.0;0.0;0
0;0;0;0;0;0;0;0;0
0.014244128717711564;0.0;0.0;0;0;0
