#auto generated file!
1243;41;0;0;0.8233168492395997;0.8174961207974493;0.005820728442144553;0.0;0.0;3;38
1243;41;0;0;0.8233168492395997;0.8174961207974493;0.0;9.267068273092377;3
0;0;0;0;0.0;0.0;0.0;0.0;0
0;0;0;0;0;0;0;0;0
0.005820728442144553;0.0;0.0;0;0;0
