#auto generated file!
238;371;2;0;4.216164999465246;4.2102793237248655;0.00588567574038069;0.0;0.0;321;50
238;371;2;0;4.216164999465246;4.2102793237248655;0.0;59.12064926372157;321
0;0;0;0;0.0;0.0;0.0;0.0;0
0;0;0;0;0;0;0;0;0
0.00588567574038069;0.0;0.0;0;0;0
