#auto generated file!
382;1;0;0;0.29005626081503477;0.19679813250723702;0.0932581283077975;0.0;0.0;0;1
301;0;0;0;0.20313967546904013;0.17977143687349822;0.0;8.93574297188754;0
81;1;0;0;0.613042584137805;0.26007017430668655;0.0;0.15562248995983935;0
0;0;0;0;0;0;0;0;0
0.02336823859554176;0.0;0.3529724098311185;0;0;0
