#auto generated file!
18555;3004;54;0;2.3023150253957123;2.2488364355349195;0.05347858986080157;0.0;0.0;1804;1200
15945;2969;54;0;2.598986937333886;2.593127372887025;0.0;29.39926372155288;1804
2610;35;0;0;0.48988834499180056;0.1454958240102072;0.0;0.11144578313253012;0
0;0;0;0;0;0;0;0;0
0.005859564446862731;0.0;0.34439252098159207;0;0;0
