#auto generated file!
227;7;0;0;0.5467065793487488;0.4712270181074108;0.07547956124133731;0.0;0.0;2;5
180;7;0;0;0.4984455798201113;0.4926225469025338;0.0;15.272757697456486;2
47;0;0;0;0.7315359392456584;0.38928669506225966;0.0;0.0853413654618474;0
0;0;0;0;0;0;0;0;0
0.005823032917576797;0.0;0.34224924418339886;0;0;0
