#auto generated file!
544;264;0;0;1.9108689566647432;1.690413258476781;0.22045569818796437;0.0;0.0;227;37
216;261;0;0;4.018705486380631;4.00456962483348;0.0;52.25568942436413;227
328;3;0;0;0.5227814858762323;0.16645662697358496;0.0;0.20833333333333334;0
0;0;0;0;0;0;0;0;0
0.01413586154714983;0.0;0.35632485890264726;0;0;0
