#auto generated file!
384;3;0;0;0.3205613779283318;0.24330002594791555;0.07726135198041657;0.0;0.0;0;3
311;2;0;0;0.22814870609648144;0.213366477751816;0.0;4.642737617135204;0
73;1;0;0;0.7142646784722421;0.3708251422354068;0.0;0.09889558232931726;0
0;0;0;0;0;0;0;0;0
0.014782228344665511;0.0;0.3434395362368352;0;0;0
