#auto generated file!
94;4;0;0;2.0199494577318857;1.8633268404728822;0.15662261725900295;0.0;0.0;0;4
54;4;0;0;3.129194375884512;3.1155738713655294;0.0;7.22473226238286;0
40;0;0;0;0.5224688182258405;0.1727933487678094;0.0;0.0677710843373494;0
0;0;0;0;0;0;0;0;0
0.013620504518982076;0.0;0.3496754694580311;0;0;0
