#auto generated file!
35247;7470;118;0;3.3093337624850694;3.2378223018773067;0.07151146060775129;0.0;0.0;3810;3660
30147;7378;117;0;3.789385292362761;3.765953537211145;0.0;86.39223560910308;3810
5100;92;1;0;0.4716644544021653;0.1159453701891768;0.0;0.24447791164658633;0
0;0;0;0;0;0;0;0;0
0.023431755151595943;0.0;0.35571908421298715;0;0;0
