#auto generated file!
3651;112;0;0;1.0886667278533901;1.0142026473730255;0.07446408048036518;0.0;0.0;0;112
3088;103;0;0;1.2039223874327227;1.1805455630551074;0.0;47.45900267737618;0
563;9;0;0;0.4565006944946214;0.10182800505283371;0.0;0.17319277108433734;0
0;0;0;0;0;0;0;0;0
0.023376824377618788;0.0;0.35467268944178754;0;0;0
