#auto generated file!
236;11;0;0;1.5708092783343721;1.5570113871252889;0.013797891209083264;0.0;0.0;3;8
236;11;0;0;1.5708092783343721;1.5570113871252889;0.0;10.420850066934408;3
0;0;0;0;0.0;0.0;0.0;0.0;0
0;0;0;0;0;0;0;0;0
0.013797891209083264;0.0;0.0;0;0;0
