#auto generated file!
3822;113;3;0;0.9566168486686878;0.9038566521110337;0.052760196557646834;0.0;0.0;0;113
3376;105;3;0;0.9654101305450667;0.9518267554030551;0.0;2.227242302543507;0
446;8;0;0;0.8900560423578019;0.540746632573232;0.0;0.0823293172690763;0
0;0;0;0;0;0;0;0;0
0.01358337514200604;0.0;0.3493094097845713;0;0;0
