#auto generated file!
3486;111;0;0;0.5113361515112412;0.44206270146096277;0.06927345005027707;0.0;0.0;76;35
2921;102;0;0;0.5246771660093721;0.5105568042426798;0.0;23.251338688085667;76
565;9;0;0;0.44236428717665727;0.08795425150450809;0.0;0.19979919678714858;0
0;0;0;0;0;0;0;0;0
0.014120361766690214;0.0;0.3544100356721488;0;0;0
