#auto generated file!
27207;2087;23;0;1.2167349204930098;1.163449009025795;0.05328591146721655;0.0;0.0;1180;907
24095;2042;23;0;1.3120320245031434;1.2977966247060349;0.0;22.360274431057558;1180
3112;45;0;0;0.4788866810572546;0.12324791654012773;0.0;0.18875502008032127;0
0;0;0;0;0;0;0;0;0
0.014235399797102529;0.0;0.35563876451712595;0;0;0
