#auto generated file!
12176;683;21;0;1.7872161232131778;1.7372746910362369;0.04994143217694464;0.0;0.0;0;683
10831;651;21;0;1.946670229512077;1.932995376905634;0.0;15.330488621151277;0
1345;32;0;0;0.5031659928612702;0.16117748014296007;0.0;0.11546184738955824;0
0;0;0;0;0;0;0;0;0
0.013674852606439167;0.0;0.341988512718313;0;0;0
