#auto generated file!
282;4;0;0;0.4274346121468336;0.4229123013522203;0.0045223107946126585;0.0;0.0;0;4
282;4;0;0;0.4274346121468336;0.4229123013522203;0.0;7.020582329317266;0
0;0;0;0;0.0;0.0;0.0;0.0;0
0;0;0;0;0;0;0;0;0
0.0045223107946126585;0.0;0.0;0;0;0
