#auto generated file!
3366;40;0;0;0.3347701320121917;0.26549216500502526;0.06927796700716572;0.0;0.0;6;34
2819;36;0;0;0.3133349172641545;0.2992664182038276;0.0;12.252342704149935;6
547;4;0;0;0.4452379023498821;0.09143435921448681;0.0;0.15612449799196787;0
0;0;0;0;0;0;0;0;0
0.014068499060326312;0.0;0.3538035431353956;0;0;0
