#auto generated file!
4291;52;0;0;0.3061276268689688;0.29204701743451894;0.014080609434448698;0.0;0.0;18;34
4291;52;0;0;0.3061276268689688;0.29204701743451894;0.0;11.213186077643913;18
0;0;0;0;0.0;0.0;0.0;0.0;0
0;0;0;0;0;0;0;0;0
0.014080609434448698;0.0;0.0;0;0;0
