#auto generated file!
355;2;0;0;0.2911276918031554;0.2030158884115896;0.0881118033915661;0.0;0.0;0;2
277;1;0;0;0.22979395279630319;0.21593997283923008;0.0;7.31091030789826;0
78;1;0;0;0.5089410982762075;0.15711881935445562;0.0;0.1330321285140562;0
0;0;0;0;0;0;0;0;0
0.013853979957073078;0.0;0.351822278921752;0;0;0
