#auto generated file!
1298;481;0;0;1.563771179740718;1.549627917449807;0.014143262290904483;0.0;0.0;423;58
1298;481;0;0;1.563771179740718;1.549627917449807;0.0;59.91800535475233;423
0;0;0;0;0.0;0.0;0.0;0.0;0
0;0;0;0;0;0;0;0;0
0.014143262290904483;0.0;0.0;0;0;0
