#auto generated file!
180.0;168;79;53
186.0;164;85;51
192.0;168;83;49
198.0;171;85;44
204.0;168;92;40
210.0;171;96;33
216.0;174;90;36
222.0;176;80;44
228.0;181;77;42
234.0;191;73;36
240.0;189;73;38
246.0;184;75;41
252.0;183;73;44
258.0;185;74;41
264.0;178;78;44
270.0;175;71;54
276.0;174;72;54
282.0;178;71;51
288.0;174;71;55
294.0;171;71;58
300.0;171;68;61
306.0;172;75;53
312.0;182;73;45
318.0;182;78;40
324.0;181;73;46
330.0;178;76;46
336.0;177;76;47
342.0;182;78;40
348.0;182;82;36
354.0;182;80;38
360.0;174;85;41
366.0;178;91;31
372.0;174;90;36
378.0;175;86;39
384.0;170;92;38
390.0;168;94;38
396.0;161;101;38
402.0;161;106;33
408.0;153;114;33
414.0;156;107;37
420.0;156;107;37
426.0;157;105;38
432.0;160;98;42
438.0;161;95;44
444.0;154;89;57
450.0;156;90;54
456.0;157;95;48
462.0;161;91;48
468.0;169;92;39
474.0;169;89;42
480.0;170;92;38
486.0;167;94;39
492.0;165;95;40
498.0;168;93;39
504.0;168;92;40
510.0;168;92;40
516.0;168;98;34
522.0;164;93;43
528.0;165;91;44
534.0;168;94;38
540.0;165;90;45
546.0;165;90;45
552.0;167;92;41
558.0;166;85;49
564.0;174;75;51
570.0;175;87;38
576.0;171;87;42
582.0;179;89;32
588.0;179;81;40
594.0;180;78;42
600.0;192;71;37
606.0;193;67;40
612.0;194;69;37
618.0;191;69;40
624.0;196;66;38
630.0;195;68;37
636.0;191;71;38
642.0;186;80;34
648.0;184;76;40
654.0;177;81;42
660.0;181;78;41
666.0;184;77;39
672.0;178;80;42
678.0;178;77;45
684.0;182;74;44
690.0;176;80;44
696.0;178;76;46
702.0;179;77;44
708.0;181;85;34
714.0;184;81;35
720.0;187;76;37
726.0;177;81;42
732.0;176;78;46
738.0;178;81;41
744.0;178;83;39
750.0;176;82;42
756.0;185;78;37
762.0;180;78;42
768.0;179;81;40
774.0;177;75;48
780.0;176;82;42
786.0;173;80;47
792.0;176;81;43
798.0;175;76;49
804.0;178;80;42
810.0;178;82;40
816.0;169;86;45
822.0;165;87;48
828.0;166;94;40
834.0;173;91;36
840.0;178;80;42
846.0;179;77;44
852.0;175;81;44
858.0;180;83;37
864.0;179;81;40
870.0;174;88;38
876.0;169;88;43
882.0;158;96;46
888.0;157;98;45
894.0;162;93;45
900.0;169;90;41
906.0;167;94;39
912.0;170;92;38
918.0;169;86;45
924.0;172;86;42
930.0;164;83;53
936.0;164;90;46
942.0;161;96;43
948.0;152;98;50
954.0;141;97;62
960.0;145;94;61
966.0;151;93;56
972.0;154;94;52
978.0;161;97;42
984.0;156;93;51
990.0;158;93;49
996.0;151;98;51
1002.0;151;97;52
1008.0;152;98;50
1014.0;148;96;56
1020.0;155;96;49
1026.0;164;88;48
1032.0;166;83;51
1038.0;168;90;42
1044.0;177;86;37
1050.0;172;95;33
1056.0;177;88;35
1062.0;182;86;32
1068.0;177;88;35
1074.0;174;88;38
1080.0;168;94;38
1086.0;170;95;35
1092.0;169;94;37
1098.0;167;96;37
1104.0;166;94;40
1110.0;167;92;41
1116.0;171;89;40
1122.0;164;89;47
1128.0;163;82;55
1134.0;162;78;60
1140.0;164;84;52
1146.0;174;80;46
1152.0;167;86;47
1158.0;174;83;43
1164.0;173;81;46
1170.0;166;87;47
1176.0;170;79;51
1182.0;167;87;46
1188.0;168;87;45
1194.0;177;87;36
1200.0;172;89;39
1206.0;175;88;37
1212.0;171;92;37
1218.0;172;85;43
1224.0;170;84;46
1230.0;163;91;46
1236.0;159;99;42
1242.0;161;97;42
1248.0;167;94;39
1254.0;165;94;41
1260.0;170;93;37
1266.0;169;88;43
1272.0;169;93;38
1278.0;161;99;40
1284.0;153;102;45
1290.0;147;104;49
1296.0;148;104;48
1302.0;150;105;45
1308.0;149;99;52
1314.0;159;89;52
1320.0;168;90;42
1326.0;166;92;42
1332.0;175;97;28
1338.0;175;95;30
1344.0;181;86;33
1350.0;176;83;41
1356.0;172;83;45
1362.0;172;84;44
1368.0;180;82;38
1374.0;185;77;38
1380.0;188;75;37
1386.0;185;75;40
1392.0;184;72;44
1398.0;185;70;45
1404.0;185;74;41
1410.0;180;76;44
1416.0;174;78;48
1422.0;173;79;48
1428.0;182;76;42
1434.0;182;73;45
1440.0;181;75;44
1446.0;175;80;45
1452.0;179;78;43
1458.0;176;85;39
1464.0;168;93;39
1470.0;167;90;43
1476.0;162;95;43
1482.0;164;86;50
1488.0;165;86;49
1494.0;160;90;50
