#auto generated file!
28432;3570;105;0;3.176618893338765;3.1179421413387227;0.058676752000045615;0.0;0.0;915;2655
24900;3538;103;0;3.5607370110236736;3.5432163898055054;0.0;70.563922356091;915
3532;32;2;0;0.46865141588850395;0.11983093329145855;0.0;0.1716867469879518;0
0;0;0;0;0;0;0;0;0
0.017520621218172668;0.0;0.34882048259704357;0;0;0
