#auto generated file!
2251;14;0;0;0.2631770255289342;0.19399312499845603;0.06918390053047793;0.0;0.0;2;12
1884;10;0;0;0.2285388446875903;0.2145887174692137;0.0;8.39943105756359;2
367;4;0;0;0.4409926459787755;0.08826534239652786;0.0;0.1465863453815261;0
0;0;0;0;0;0;0;0;0
0.013950127218377016;0.0;0.3527273035822471;0;0;0
