#auto generated file!
11012;153;0;0;0.4940655219834523;0.4396472264349156;0.054418295548530754;0.0;0.0;0;153
9683;138;0;0;0.48649109947711183;0.4727511916892171;0.0;2.7970214190093716;0
1329;15;0;0;0.5492522286267131;0.19845407703130594;0.0;0.0853413654618474;0
0;0;0;0;0;0;0;0;0
0.013739907787890101;0.0;0.35079815159540684;0;0;0
