#auto generated file!
6159;100;2;0;0.5144608110617191;0.45933141925345006;0.05512939180826242;0.0;0.0;0;100
5399;83;2;0;0.5039455513334713;0.49030546807250425;0.0;1.7110107095046843;0
760;17;0;0;0.5891606627364562;0.23929340665599735;0.0;0.05773092369477912;0
0;0;0;0;0;0;0;0;0
0.013640083260964855;0.0;0.34986725608045816;0;0;0
